800 2443.54 387.01 2490.46
801 2204.35 1123.17 2490.46
802 1749.38 1749.38 2490.46
803 1123.17 2204.35 2490.46
804 387.01 2443.54 2490.46
805 -387.01 2443.54 2490.46
806 -1123.17 2204.35 2490.46
807 -1749.38 1749.38 2490.46
808 -2204.35 1123.17 2490.46
809 -2443.54 387.01 2490.46
810 -2443.54 -387.01 2490.46 
811 -2204.35 -1123.17 2490.46
812 -1749.38 -1749.38 2490.46
813 -1123.17 -2204.35 2490.46
814 -387.01 -2443.54 2490.46
815 387.01 -2443.54 2490.46
816 1123.17 -2204.35 2490.46
817 1749.38 -1749.38 2490.46
818 2204.35 -1123.17 2490.46
819 2443.54 -387.01 2490.46
820 2443.54 387.01 1790.46
821 2204.35 1123.17 1790.46
822 1749.38 1749.38 1790.46
823 1123.17 2204.35 1790.46
824 387.01 2443.54 1790.46
825 -387.01 2443.54 1790.46
826 -1123.17 2204.35 1790.46
827 -1749.38 1749.38 1790.46
828 -2204.35 1123.17 1790.46
829 -2443.54 387.01 1790.46
830 -2443.54 -387.01 1790.46
831 -2204.35 -1123.17 1790.46
832 -1749.38 -1749.38 1790.46
833 -1123.17 -2204.35 1790.46
834 -387.01 -2443.54 1790.46
835 387.01 -2443.54 1790.46
836 1123.17 -2204.35 1790.46
837 1749.38 -1749.38 1790.46
838 2204.35 -1123.17 1790.46
839 2443.54 -387.01 1790.46
840 2443.54 387.01 1090.46
841 2204.35 1123.17 1090.46
842 1749.38 1749.38 1090.46
843 1123.17 2204.35 1090.46
844 387.01 2443.54 1090.46
845 -387.01 2443.54 1090.46
846 -1123.17 2204.35 1090.46
847 -1749.38 1749.38 1090.46
848 -2204.35 1123.17 1090.46
849 -2443.54 387.01 1090.46
850 -2443.54 -387.01 1090.46
851 -2204.35 -1123.17 1090.46
852 -1749.38 -1749.38 1090.46
853 -1123.17 -2204.35 1090.46
854 -387.01 -2443.54 1090.46
855 387.01 -2443.54 1090.46
856 1123.17 -2204.35 1090.46
857 1749.38 -1749.38 1090.46
858 2204.35 -1123.17 1090.46
859 2443.54 -387.01 1090.46
860 2443.54 387.01 390.46
861 2204.35 1123.17 390.46
862 1749.38 1749.38 390.46
863 1123.17 2204.35 390.46
864 387.01 2443.54 390.46
865 -387.01 2443.54 390.46
866 -1123.17 2204.35 390.46
867 -1749.38 1749.38 390.46
868 -2204.35 1123.17 390.46
869 -2443.54 387.01 390.46
870 -2443.54 -387.01 390.46
871 -2204.35 -1123.17 390.46
872 -1749.38 -1749.38 390.46
873 -1123.17 -2204.35 390.46
874 -387.01 -2443.54 390.46
875 387.01 -2443.54 390.46
876 1123.17 -2204.35 390.46
877 1749.38 -1749.38 390.46
878 2204.35 -1123.17 390.46
879 2443.54 -387.01 390.46
880 2443.54 387.01 -309.54
881 2204.35 1123.17 -309.54
882 1749.38 1749.38 -309.54
883 1123.17 2204.35 -309.54
884 387.01 2443.54 -309.54
885 -387.01 2443.54 -309.54
886 -1123.17 2204.35 -309.54
887 -1749.38 1749.38 -309.54
888 -2204.35 1123.17 -309.54
889 -2443.54 387.01 -309.54
890 -2443.54 -387.01 -309.54
891 -2204.35 -1123.17 -309.54
892 -1749.38 -1749.38 -309.54
893 -1123.17 -2204.35 -309.54
894 -387.01 -2443.54 -309.54
895 387.01 -2443.54 -309.54
896 1123.17 -2204.35 -309.54
897 1749.38 -1749.38 -309.54
898 2204.35 -1123.17 -309.54
899 2443.54 -387.01 -309.54
900 2443.54 387.01 -1009.54
901 2204.35 1123.17 -1009.54
902 1749.38 1749.38 -1009.54
903 1123.17 2204.35 -1009.54
904 387.01 2443.54 -1009.54
905 -387.01 2443.54 -1009.54
906 -1123.17 2204.35 -1009.54
907 -1749.38 1749.38 -1009.54
908 -2204.35 1123.17 -1009.54
909 -2443.54 387.01 -1009.54
910 -2443.54 -387.01 -1009.54
911 -2204.35 -1123.17 -1009.54
912 -1749.38 -1749.38 -1009.54
913 -1123.17 -2204.35 -1009.54
914 -387.01 -2443.54 -1009.54
915 387.01 -2443.54 -1009.54
916 1123.17 -2204.35 -1009.54
917 1749.38 -1749.38 -1009.54
918 2204.35 -1123.17 -1009.54
919 2443.54 -387.01 -1009.54